…
    ## # A tibble: 1 × 2
    ##     q95    sd
    ##   <dbl> <dbl>
    ## 1   186  9.24

### B. Which single women’s event had the greatest variability in competitor’s heights across the entire history of the Olympics, as measured by the standard deviation?

Rowing Women’s Coxed Fours have the greatest variability as measured by
standard deviation. Also available is the 95th percentile of heights for
female competitors for each athletic event (only top 10 values of
standard deviations are shown).

<br/>

    ## # A tibble: 132 × 3
    ##    event                                   q95    sd
    ##    <chr>                                 <dbl> <dbl>
    ##  1 Rowing Women's Coxed Fours             184. 10.9 
    ##  2 Basketball Women's Basketball          198.  9.70
    ##  3 Rowing Women's Coxed Quadruple Sculls  183.  9.25
    ##  4 Rowing Women's Coxed Eights            188   8.74
    ##  5 Swimming Women's 100 metres Butterfly  185   8.13
    ##  6 Volleyball Women's Volleyball          193   8.10
    ##  7 Gymnastics Women's Uneven Bars         166   8.02
    ##  8 Shooting Women's Double Trap           182.  7.83
    ##  9 Cycling Women's Keirin                 182.  7.76
    ## 10 Swimming Women's 400 metres Freestyle  185.  7.62
    ## # … with 122 more rows
…
